{
	"info": {
		"_postman_id": "c6065b59-d264-4049-a72f-01bdee74bb17",
		"name": "Data driven without env",
		"schema": "https://schema.getpostman.com/json/collection/v2.1.0/collection.json",
		"_exporter_id": "29395183"
	},
	"item": [
		{
			"name": "Create",
			"event": [
				{
					"listen": "test",
					"script": {
						"exec": [
							"// step 1 validate status code\r",
							"pm.test(\"Validate status code is 201\", function () {\r",
							"    pm.response.to.have.status(201);\r",
							"})\r",
							"//step 2 declare expected results\r",
							"//step 2.1 declare expected date\r",
							"//var actualDate= new Date().toJSON().slice(0,10);\r",
							"var actualDate= new Date().toISOString().slice(0,10);\r",
							"//step 2.2 fetch request body \r",
							"var requestBody=pm.request.body.raw;\r",
							"requestBody=JSON.parse(requestBody);\r",
							"//step 2.2 fetch request body parameters from request body\r",
							"var req_name=requestBody.name;\r",
							"var req_job=requestBody.job;\r",
							"\r",
							"//step 3 validate response body\r",
							"//step 3.1 extract response body\r",
							"var responseBody=pm.response.json();\r",
							"\r",
							"//step 3.2 extract response body for each name\r",
							"var res_name=responseBody.name;\r",
							"var res_job=responseBody.job;\r",
							"var res_id=responseBody.id;\r",
							"var res_date=responseBody.createdAt;\r",
							"res_date=res_date.slice(0,10);\r",
							"\r",
							"// step 3.3 validate respons body\r",
							"pm.test(\"validate responseBody:name\",function ()\r",
							"{\r",
							"    pm.expect(res_name).to.eql(req_name)\r",
							"})\r",
							"pm.test(\"Validate responseBody:job\",function () {\r",
							"    pm.expect(res_job).to.eql(req_job)\r",
							"})\r",
							"pm.test(\"validate responseBody:id\", function()\r",
							"{\r",
							"    pm.expect(res_id).to.not.null;\r",
							"    pm.expect(res_id).to.not.eql(0);\r",
							"})\r",
							"pm.test(\"validate responseBody:date\",function()\r",
							"{\r",
							"    pm.expect(res_date).to.eql(actualDate);\r",
							"})\r",
							"var statuscode=pm.response.status;\r",
							"if (statuscode!=200)\r",
							"{pm.response.itirationcount==5}\r",
							"else\r",
							"console.log(\"\");\r",
							""
						],
						"type": "text/javascript"
					}
				},
				{
					"listen": "prerequest",
					"script": {
						"exec": [
							""
						],
						"type": "text/javascript"
					}
				}
			],
			"request": {
				"method": "POST",
				"header": [],
				"body": {
					"mode": "raw",
					"raw": "{\r\n    \"name\": \"{{name}}\",\r\n    \"job\": \"{{job}}\"\r\n}",
					"options": {
						"raw": {
							"language": "json"
						}
					}
				},
				"url": {
					"raw": "https://reqres.in/api/users/2",
					"protocol": "https",
					"host": [
						"reqres",
						"in"
					],
					"path": [
						"api",
						"users",
						"2"
					]
				}
			},
			"response": []
		},
		{
			"name": "Update",
			"event": [
				{
					"listen": "test",
					"script": {
						"exec": [
							"\r",
							"// step 1 validate status code\r",
							"pm.test(\"validate status code\", function ()\r",
							" {\r",
							" pm.response.to.have.status(200)\r",
							" })\r",
							"//setp 2 declare expected results\r",
							"//Step 2.1 Declare the expected date\r",
							"//var actualDate= new Date().toISOString().slice(0,11);\r",
							"var actualDate= new Date().toJSON().slice(0,10);\r",
							"\r",
							" // step 2.2 Fetch request parameters from request body\r",
							" var requestBody=pm.request.body.raw;\r",
							" requestBody=JSON.parse(requestBody);\r",
							" var req_name=requestBody.name;\r",
							" var req_job=requestBody.job;\r",
							"\r",
							" //step 3 validate response body\r",
							" // step 3.1 extract response body\r",
							" var responseBody=pm.response.json();\r",
							"\r",
							"//step 3.1 extract reponse body for each name\r",
							" var res_name=responseBody.name;\r",
							" var res_job=responseBody.job;\r",
							" var res_date=responseBody.updatedAt;\r",
							" res_date=res_date.slice(0,10);\r",
							" console.log(res_name);\r",
							" console.log(res_job);\r",
							" console.log(res_date);\r",
							" \r",
							" // step 3.3 validate respons body\r",
							" pm.test(\"validate responsebody:name\", function ()\r",
							" {\r",
							" pm.expect(res_name).to.eql(req_name);\r",
							" pm.expect(res_job).to.eql(req_job);\r",
							" })\r",
							" pm.test(\"validate responsebody:job\", function ()\r",
							" {\r",
							"  pm.expect(res_job).to.eql(req_job);\r",
							" })\r",
							"\r",
							"pm.test(\"validate responseBody:date\",function(){\r",
							"    pm.expect(res_date).to.eql(actualDate);\r",
							"})\r",
							"\r",
							"\r",
							""
						],
						"type": "text/javascript"
					}
				},
				{
					"listen": "prerequest",
					"script": {
						"exec": [
							"var email =pm.variables.replaceIn('{{$randomEmail}}')\r",
							"pm.collectionVariables.set(\"email\",email);\r",
							"\r",
							"var password =pm.variables.replaceIn('{{$randomPassword}}')\r",
							"pm.collectionVariables.set(\"password\",password);"
						],
						"type": "text/javascript"
					}
				}
			],
			"request": {
				"method": "PUT",
				"header": [],
				"body": {
					"mode": "raw",
					"raw": "{\r\n    \"email\": \"{{email}}\",\r\n    \"password\": \"{{password}}\"\r\n}",
					"options": {
						"raw": {
							"language": "json"
						}
					}
				},
				"url": {
					"raw": "https://reqres.in/api/users/2",
					"protocol": "https",
					"host": [
						"reqres",
						"in"
					],
					"path": [
						"api",
						"users",
						"2"
					]
				}
			},
			"response": []
		}
	],
	"event": [
		{
			"listen": "prerequest",
			"script": {
				"type": "text/javascript",
				"exec": [
					""
				]
			}
		},
		{
			"listen": "test",
			"script": {
				"type": "text/javascript",
				"exec": [
					""
				]
			}
		}
	],
	"variable": [
		{
			"key": "name",
			"value": "",
			"type": "string"
		},
		{
			"key": "job",
			"value": "",
			"type": "string"
		},
		{
			"key": "email",
			"value": ""
		},
		{
			"key": "password",
			"value": ""
		}
	]
}