{
	"info": {
		"_postman_id": "9777473c-f6c4-49b9-9a3e-15b250988cb4",
		"name": "Resource",
		"schema": "https://schema.getpostman.com/json/collection/v2.1.0/collection.json",
		"_exporter_id": "29395183"
	},
	"item": [
		{
			"name": "resource1",
			"event": [
				{
					"listen": "test",
					"script": {
						"exec": [
							"//step 1 validate status code is 200\r",
							"pm.test(\"Status code is 200\", function () {\r",
							"    pm.response.to.have.status(200);\r",
							"});\r",
							"//step 2 declare expected results\r",
							"// step 2.1 declare expected result array for response parameters\r",
							"const id =[10];\r",
							"const title=[\"optio molestias id quia eum\"];\r",
							"const body=[\"quo et expedita modi cum officia vel magni\\ndoloribus qui repudiandae\\nvero nisi sit\\nquos veniam quod sed accusamus veritatis error\"];\r",
							"// step 3 validate responsebody \r",
							"//step 3.1 extract responsebody\r",
							"var responseBody=pm.response.json();\r",
							"var count=Object.keys(responseBody).length;\r",
							"\r",
							"// step 3.2 extract responsebody for each name\r",
							"for (i=0;i<count;i++)\r",
							"{\r",
							"var exp_id= id[i];\r",
							"var exp_title= title[i];\r",
							"var exp_body=body[i];\r",
							"\r",
							"var res_id= responseBody[i].id;\r",
							"var res_title= responseBody[i].title;\r",
							"var res_body =responseBody[i].body;\r",
							"\r",
							"// step 3.3 validate response body\r",
							"pm.test(\"validate response body param id\",\r",
							"function()\r",
							"{\r",
							"pm.expect(res_id).to.eqls(exp_id);\r",
							"})\r",
							"\r",
							"pm.test(\"validate response body param title\",\r",
							"function()\r",
							"{\r",
							"pm.expect(res_title).to.eqls(exp_title);\r",
							"})\r",
							"pm.test(\"validate response body param body\" ,\r",
							"function()\r",
							"{\r",
							"pm.expect(res_body).to.eqls(exp_body);\r",
							"})\r",
							"}\r",
							"\r",
							""
						],
						"type": "text/javascript"
					}
				}
			],
			"request": {
				"method": "GET",
				"header": [],
				"url": {
					"raw": "https://jsonplaceholder.typicode.com/posts?id=10",
					"protocol": "https",
					"host": [
						"jsonplaceholder",
						"typicode",
						"com"
					],
					"path": [
						"posts"
					],
					"query": [
						{
							"key": "id",
							"value": "10"
						}
					]
				}
			},
			"response": []
		},
		{
			"name": "comments",
			"event": [
				{
					"listen": "test",
					"script": {
						"exec": [
							"//step 1 validate status code is 200\r",
							"pm.test(\"Status code is 200\", function () {\r",
							"    pm.response.to.have.status(200);\r",
							"});\r",
							"//step 2 declare expected results\r",
							"// step 2.1 declare expected result array for response parameters\r",
							"const id =[1,2,3,4,5,6,7,8,9];\r",
							"const title=[\"sunt aut facere repellat provident occaecati excepturi optio reprehenderit\",\"qui est esse\",\"ea molestias quasi exercitationem repellat qui ipsa sit aut\",\"eum et est occaecati\",\"nesciunt quas odio\",\"dolorem eum magni eos aperiam quia\",\"magnam facilis autem\"];\r",
							"const body=[\"quia et suscipit\\nsuscipit recusandae consequuntur expedita et cum\\nreprehenderit molestiae ut ut quas totam\\nnostrum rerum est autem sunt rem eveniet architecto\",\"est rerum tempore vitae\\nsequi sint nihil reprehenderit dolor beatae ea dolores neque\\nfugiat blanditiis voluptate porro vel nihil molestiae ut reiciendis\\nqui aperiam non debitis possimus qui neque nisi nulla\",\"et iusto sed quo iure\\nvoluptatem occaecati omnis eligendi aut ad\\nvoluptatem doloribus vel accusantium quis pariatur\\nmolestiae porro eius odio et labore et velit aut\",\"ullam et saepe reiciendis voluptatem adipisci\\nsit amet autem assumenda provident rerum culpa\\nquis hic commodi nesciunt rem tenetur doloremque ipsam iure\\nquis sunt voluptatem rerum illo velit\",\"repudiandae veniam quaerat sunt sed\\nalias aut fugiat sit autem sed est\\nvoluptatem omnis possimus esse voluptatibus quis\\nest aut tenetur dolor neque\",\"ut aspernatur corporis harum nihil quis provident sequi\\nmollitia nobis aliquid molestiae\\nperspiciatis et ea nemo ab reprehenderit accusantium quas\\nvoluptate dolores velit et doloremque molestiae\",\"dolore placeat quibusdam ea quo vitae\\nmagni quis enim qui quis quo nemo aut saepe\\nquidem repellat excepturi ut quia\\nsunt ut sequi eos ea sed quas\"]\r",
							"// step 3 validate responsebody \r",
							"//step 3.1 extract responsebody\r",
							"var responseBody=pm.response.json();\r",
							"var count=Object.keys(responseBody).length;\r",
							"\r",
							"// step 3.2 extract responsebody for each name\r",
							"for (i=0;i<count;i++)\r",
							"{\r",
							"var exp_id= id[i];\r",
							"var exp_title= title[i];\r",
							"var exp_body=body[i];\r",
							"\r",
							"var res_id= responseBody[i].id;\r",
							"var res_title= responseBody[i].title;\r",
							"var res_body =responseBody[i].body;\r",
							"\r",
							"// step 3.3 validate response body\r",
							"pm.test(\"validate response body param id at index \" +i ,\r",
							"function()\r",
							"{\r",
							"pm.expect(res_id).to.eqls(exp_id);\r",
							"})\r",
							"\r",
							"pm.test(\"validate response body param title at index \" +i ,\r",
							"function()\r",
							"{\r",
							"pm.expect(res_title).to.eqls(exp_title);\r",
							"})\r",
							"pm.test(\"validate response body param body at index \" +i ,\r",
							"function()\r",
							"{\r",
							"pm.expect(res_body).to.eqls(exp_body);\r",
							"})\r",
							"}\r",
							"\r",
							""
						],
						"type": "text/javascript"
					}
				}
			],
			"request": {
				"method": "GET",
				"header": [],
				"url": {
					"raw": "https://jsonplaceholder.typicode.com/posts?id=1&id=2&id=3&id=4&id=5&id=6&id=7",
					"protocol": "https",
					"host": [
						"jsonplaceholder",
						"typicode",
						"com"
					],
					"path": [
						"posts"
					],
					"query": [
						{
							"key": "id",
							"value": "1"
						},
						{
							"key": "id",
							"value": "2"
						},
						{
							"key": "id",
							"value": "3"
						},
						{
							"key": "id",
							"value": "4"
						},
						{
							"key": "id",
							"value": "5"
						},
						{
							"key": "id",
							"value": "6"
						},
						{
							"key": "id",
							"value": "7"
						},
						{
							"key": "",
							"value": "",
							"disabled": true
						}
					]
				}
			},
			"response": []
		},
		{
			"name": "getresource",
			"event": [
				{
					"listen": "test",
					"script": {
						"exec": [
							"//step 1 validate status code is 200\r",
							"pm.test(\"Status code is 200\", function () {\r",
							"    pm.response.to.have.status(200);\r",
							"});\r",
							"//step 2 declare expected results\r",
							"// step 2.1 declare expected result array for response parameters\r",
							"const id =[1,2,3,4,5,6,7,8,9,10];\r",
							"const title=[\"quidem molestiae enim\",\"sunt qui excepturi placeat culpa\",\"omnis laborum odio\",\"non esse culpa molestiae omnis sed optio\",\"eaque aut omnis a\",\"natus impedit quibusdam illo est\",\"quibusdam autem aliquid et et quia\",\"qui fuga est a eum\",\"saepe unde necessitatibus rem\",\"distinctio laborum qui\"];\r",
							"// step 3 validate responsebody \r",
							"//step 3.1 extract responsebody\r",
							"var responseBody=pm.response.json();\r",
							"var count=Object.keys(responseBody).length;\r",
							"\r",
							"// step 3.2 extract responsebody for each name\r",
							"for (i=0;i<count;i++)\r",
							"{\r",
							"var exp_id= id[i];\r",
							"var exp_title= title[i];\r",
							"\r",
							"var res_id= responseBody[i].id;\r",
							"var res_title= responseBody[i].title;\r",
							"\r",
							"// step 3.3 validate response body\r",
							"pm.test(\"validate id at index \" +i ,\r",
							"function()\r",
							"{\r",
							"pm.expect(res_id).to.eqls(exp_id);\r",
							"})\r",
							"pm.test(\"validate title at index \" +i ,\r",
							"function()\r",
							"{\r",
							"pm.expect(res_title).to.eqls(exp_title);\r",
							"})\r",
							"}\r",
							""
						],
						"type": "text/javascript"
					}
				}
			],
			"protocolProfileBehavior": {
				"disableBodyPruning": true
			},
			"request": {
				"method": "GET",
				"header": [],
				"body": {
					"mode": "raw",
					"raw": "",
					"options": {
						"raw": {
							"language": "json"
						}
					}
				},
				"url": {
					"raw": "https://jsonplaceholder.typicode.com/users/1/albums",
					"protocol": "https",
					"host": [
						"jsonplaceholder",
						"typicode",
						"com"
					],
					"path": [
						"users",
						"1",
						"albums"
					]
				}
			},
			"response": []
		},
		{
			"name": "resourceid",
			"event": [
				{
					"listen": "test",
					"script": {
						"exec": [
							"//step 1 validate status code is 200\r",
							"pm.test(\"Status code is 200\", function () {\r",
							"    pm.response.to.have.status(200);\r",
							"});\r",
							"//step 2 declare expected results\r",
							"// step 2.1 declare expected result array for response parameters\r",
							"const id =[1];\r",
							"const name=[\"Leanne Graham\"];\r",
							"const username=[\"Bret\"];\r",
							"const email=[\"Sincere@april.biz\"];\r",
							"const street=[\"Kulas Light\"];\r",
							"const suite=[\"Apt. 556\"];\r",
							"const city=[\"Gwenborough\"];\r",
							"const zipcode=[\"92998-3874\"];\r",
							"const lat=[\"-37.3159\"];\r",
							"const lng=[\"81.1496\"];\r",
							"const phone=[\"1-770-736-8031 x56442\"];\r",
							"const website=[\"hildegard.org\"];\r",
							"const cname=[\"Romaguera-Crona\"];\r",
							"const phrase=[\"Multi-layered client-server neural-net\"];\r",
							"const bs=[\"harness real-time e-markets\"];\r",
							"\r",
							"// step 3 validate responsebody \r",
							"//step 3.1 extract responsebody\r",
							"var responseBody=pm.response.json();\r",
							"var count=Object.keys(responseBody).length;\r",
							"\r",
							"// step 3.2 extract responsebody for each name\r",
							"for (i=0;i<count;i++)\r",
							"{\r",
							"var exp_id= id[i];\r",
							"var exp_name= name[i];\r",
							"var exp_username=username[i];\r",
							"var exp_email=email[i];\r",
							"var exp_street=street[i];\r",
							"var exp_suite=suite[i];\r",
							"var exp_city=city[i];\r",
							"var exp_zipcode=zipcode[i];\r",
							"var exp_lat=lat[i];\r",
							"var exp_lng=lng[i];\r",
							"var exp_phone=phone[i];\r",
							"var exp_website=website[i];\r",
							"var exp_cname=cname[i];\r",
							"var exp_phrase=phrase[i];\r",
							"var exp_bs=bs[i];\r",
							"\r",
							"var res_id=responseBody[i].id;\r",
							"var res_name=responseBody[i].name;\r",
							"var res_username=responseBody[i].username;\r",
							"var res_email=responseBody[i].email;\r",
							"var res_street=responseBody[i].address.street;\r",
							"var res_suite=responseBody[i].address.suite;\r",
							"var res_city=responseBody[i].address.city;\r",
							"var res_zipcode=responseBody[i].address.zipcode;\r",
							"var res_lat=responseBody[i].address.geo.lat;\r",
							"var res_lng=responseBody[i].address.geo.lng;\r",
							"var res_phone=responseBody[i].phone;\r",
							"var res_website=responseBody[i].website;\r",
							"var res_cname=responseBody[i].company.name;\r",
							"var res_phrase=responseBody[i].company.catchPhrase;\r",
							"var res_bs=responseBody[i].company.bs;\r",
							"\r",
							"// step 3.3 validate response body\r",
							"pm.test(\"validate response body param id\" ,\r",
							"function()\r",
							"{\r",
							"pm.expect(res_id).to.eqls(exp_id);\r",
							"})\r",
							"\r",
							"pm.test(\"validate response body param name\" ,\r",
							"function()\r",
							"{\r",
							"pm.expect(res_name).to.eqls(exp_name);\r",
							"})\r",
							"pm.test(\"validate response body param username\" ,\r",
							"function()\r",
							"{\r",
							"pm.expect(res_username).to.eqls(exp_username);\r",
							"})\r",
							"pm.test(\"validate response body param email\",\r",
							"function()\r",
							"{\r",
							"pm.expect(res_email).to.eqls(exp_email);\r",
							"})\r",
							"pm.test(\"validate response body param street\",\r",
							"function()\r",
							"{\r",
							"pm.expect(res_street).to.eqls(exp_street);\r",
							"})\r",
							"pm.test(\"validate response body param suite\",\r",
							"function()\r",
							"{\r",
							"pm.expect(res_suite).to.eqls(exp_suite);\r",
							"})\r",
							"pm.test(\"validate response body param city\",\r",
							"function()\r",
							"{\r",
							"pm.expect(res_city).to.eqls(exp_city);\r",
							"})\r",
							"pm.test(\"validate response body param zipcode\",\r",
							"function()\r",
							"{\r",
							"pm.expect(res_zipcode).to.eqls(exp_zipcode);\r",
							"})\r",
							"pm.test(\"validate response body param lat\",\r",
							"function()\r",
							"{\r",
							"pm.expect(res_lat).to.eqls(exp_lat);\r",
							"})\r",
							"pm.test(\"validate response body param lng\",\r",
							"function()\r",
							"{\r",
							"pm.expect(res_lng).to.eqls(exp_lng);\r",
							"})\r",
							"pm.test(\"validate response body param phone\" ,\r",
							"function()\r",
							"{\r",
							"pm.expect(res_phone).to.eqls(exp_phone);\r",
							"})\r",
							"pm.test(\"validate response body param website\",\r",
							"function()\r",
							"{\r",
							"pm.expect(res_website).to.eqls(exp_website);\r",
							"})\r",
							"pm.test(\"validate response body param companay name\" ,\r",
							"function()\r",
							"{\r",
							"pm.expect(res_cname).to.eqls(exp_cname);\r",
							"})\r",
							"pm.test(\"validate response body param catchphrase\" ,\r",
							"function()\r",
							"{\r",
							"pm.expect(res_phrase).to.eqls(exp_phrase);\r",
							"})\r",
							"pm.test(\"validate response body param bs\" ,\r",
							"function()\r",
							"{\r",
							"pm.expect(res_bs).to.eqls(exp_bs);\r",
							"})\r",
							"}\r",
							"\r",
							""
						],
						"type": "text/javascript"
					}
				}
			],
			"request": {
				"method": "GET",
				"header": [],
				"url": {
					"raw": "{{GET_RES_ID1}}",
					"host": [
						"{{GET_RES_ID1}}"
					]
				}
			},
			"response": []
		}
	]
}