{
	"info": {
		"_postman_id": "7a0915a5-3a50-4166-94a6-528915bfdd69",
		"name": "Update_user",
		"schema": "https://schema.getpostman.com/json/collection/v2.1.0/collection.json",
		"_exporter_id": "29395183"
	},
	"item": [
		{
			"name": "Modify",
			"event": [
				{
					"listen": "test",
					"script": {
						"exec": [
							"//step 1 validate status code\r",
							"pm.test(\"Validate status code is 200\", function ()\r",
							"{\r",
							"pm.response.to.have.status(200);  \r",
							"})\r",
							"//step 2 declare expected result\r",
							"// step 2.1 declare expected date\r",
							"//var actualDate= new Date().toJSON().slice(0,11);\r",
							"var actualDate= new Date().toISOString().slice(0,11);\r",
							"\r",
							"//step 2.2 Fetch request body parameters from request body\r",
							"var requestBody=pm.request.body.raw;\r",
							"requestBody=JSON.parse(requestBody);\r",
							"var req_name=requestBody.name;\r",
							"var req_job=requestBody.job;\r",
							"\r",
							"//step 3 validate response body\r",
							"// step 3.1 extract response body\r",
							"var responseBody=pm.response.json();\r",
							"// step 3.2 extract resonse body for each name\r",
							"var res_name=responseBody.name;\r",
							"var res_job=responseBody.job;\r",
							"var res_date=responseBody.updatedAt;\r",
							"res_date=res_date.slice(0,11);\r",
							"\r",
							"// step 3.3 validate respons body\r",
							"pm.test(\"validate responsebody:name\", function ()\r",
							"{\r",
							"pm.expect(res_name).to.eql(req_name);\r",
							"})\r",
							"pm.test(\"validate responsebody:job\", function ()\r",
							"{\r",
							"pm.expect(res_job).to.eql(req_job);\r",
							"});\r",
							"pm.test(\"validate responsebody:updatedAt\", function ()\r",
							"{\r",
							"pm.expect(res_date).to.eql(actualDate);\r",
							"})"
						],
						"type": "text/javascript"
					}
				}
			],
			"request": {
				"method": "PATCH",
				"header": [],
				"body": {
					"mode": "raw",
					"raw": "{\r\n    \"name\": \"Mithilesh\",\r\n    \"job\": \"QALead\"\r\n}",
					"options": {
						"raw": {
							"language": "json"
						}
					}
				},
				"url": {
					"raw": "https://reqres.in/api/users/2",
					"protocol": "https",
					"host": [
						"reqres",
						"in"
					],
					"path": [
						"api",
						"users",
						"2"
					]
				}
			},
			"response": []
		},
		{
			"name": "Replace",
			"event": [
				{
					"listen": "test",
					"script": {
						"exec": [
							"\r",
							"// step 1 validate status code\r",
							"pm.test(\"validate status code\", function ()\r",
							" {\r",
							" pm.response.to.have.status(200)\r",
							" })\r",
							"//setp 2 declare expected results\r",
							"//Step 2.1 Declare the expected date\r",
							"//var actualDate= new Date().toISOString().slice(0,11);\r",
							"var actualDate= new Date().toJSON().slice(0,10);\r",
							"\r",
							" // step 2.2 Fetch request parameters from request body\r",
							" var requestBody=pm.request.body.raw;\r",
							" requestBody=JSON.parse(requestBody);\r",
							" var req_name=requestBody.name;\r",
							" var req_job=requestBody.job;\r",
							"\r",
							" //step 3 validate response body\r",
							" // step 3.1 extract response body\r",
							" var responseBody=pm.response.json();\r",
							"\r",
							"//step 3.1 extract reponse body for each name\r",
							" var res_name=responseBody.name;\r",
							" var res_job=responseBody.job;\r",
							" var res_date=responseBody.updatedAt;\r",
							" res_date=res_date.slice(0,10);\r",
							"\r",
							" \r",
							" // step 3.3 validate respons body\r",
							" pm.test(\"validate responsebody:name\", function ()\r",
							" {\r",
							" pm.expect(res_name).to.eql(req_name);\r",
							" pm.expect(res_job).to.eql(req_job);\r",
							" })\r",
							" pm.test(\"validate responsebody:job\", function ()\r",
							" {\r",
							"  pm.expect(res_job).to.eql(req_job);\r",
							" })\r",
							"\r",
							"pm.test(\"validate responseBody:date\",function(){\r",
							"    pm.expect(res_date).to.eql(actualDate);\r",
							"})\r",
							"\r",
							"\r",
							""
						],
						"type": "text/javascript"
					}
				},
				{
					"listen": "prerequest",
					"script": {
						"exec": [
							"var name = pm.variables.replaceIn('{{$randomFirstName}}')\r",
							"pm.globals.set(\"global_name\",name);\r",
							"\r",
							"var job =pm.variables.replaceIn('{{$randomJobType}}');\r",
							"pm.globals.set(\"global_job\",job);"
						],
						"type": "text/javascript"
					}
				}
			],
			"request": {
				"method": "PUT",
				"header": [],
				"body": {
					"mode": "raw",
					"raw": "{\r\n    \"name\": \"{{global_name}}\",\r\n    \"job\": \"{{global_job}}\"\r\n}",
					"options": {
						"raw": {
							"language": "json"
						}
					}
				},
				"url": {
					"raw": "https://reqres.in/api/users/2",
					"protocol": "https",
					"host": [
						"reqres",
						"in"
					],
					"path": [
						"api",
						"users",
						"2"
					]
				}
			},
			"response": []
		}
	]
}